﻿{
  "web": {
    "client_id": "f6b6f85e21784217a62914b0c87f1305e789eac6",
    "client_secret": "AIzaSyDtL-Xheow5RTA0ZhNXF5_cBddSGcOgNVM",
    "redirect_uris": [ "https://www.example.com/oauth2callback" ],
    "auth_uri": "https://accounts.google.com/o/oauth2/auth",
    "token_uri": "https://accounts.google.com/o/oauth2/token"
  }
}